{
	"version": 1,
	"changelists": [
		{
			"guid": "00000000000000000000000000000000",
			"description": "Default Uncontrolled Changelist",
			"files": [
				"D:/AguilochoSergioUE5Proyectos/PC/ProyectoEjerciciosT1/Content/StarterContent/Maps/Advanced_Lighting_BuiltData.uasset",
				"D:/AguilochoSergioUE5Proyectos/PC/ProyectoEjerciciosT1/Content/_SERGIO/BP/MisReglasDeJuego.uasset",
				"D:/AguilochoSergioUE5Proyectos/PC/ProyectoEjerciciosT1/Content/ThirdPerson/Maps/ThirdPersonMap.umap",
				"D:/AguilochoSergioUE5Proyectos/PC/ProyectoEjerciciosT1/Content/_SERGIO/BP/PROPS/BP_Boton.uasset",
				"D:/AguilochoSergioUE5Proyectos/PC/ProyectoEjerciciosT1/Content/__ExternalActors__/ThirdPerson/Maps/ThirdPersonMap/6/3R/IA9OILNQV6CPYU2ZOP7LO4.uasset",
				"D:/AguilochoSergioUE5Proyectos/PC/ProyectoEjerciciosT1/Content/_SERGIO/BP/PROPS/BP_Cubo.uasset",
				"D:/AguilochoSergioUE5Proyectos/PC/ProyectoEjerciciosT1/Content/__ExternalActors__/ThirdPerson/Maps/ThirdPersonMap/8/57/XEWOIBYHFY7R88NN66EU0N.uasset",
				"D:/AguilochoSergioUE5Proyectos/PC/ProyectoEjerciciosT1/Content/__ExternalActors__/ThirdPerson/Maps/ThirdPersonMap/7/8P/38ATH7WVF5RI8M7AFY851T.uasset",
				"D:/AguilochoSergioUE5Proyectos/PC/ProyectoEjerciciosT1/Content/__ExternalActors__/ThirdPerson/Maps/ThirdPersonMap/9/V3/JP60H752G9V5JOG55FNXQN.uasset",
				"D:/AguilochoSergioUE5Proyectos/PC/ProyectoEjerciciosT1/Content/__ExternalActors__/ThirdPerson/Maps/ThirdPersonMap/1/K9/DFGSX0TPG4IMZZLVSERH5Q.uasset",
				"D:/AguilochoSergioUE5Proyectos/PC/ProyectoEjerciciosT1/Content/__ExternalActors__/ThirdPerson/Maps/ThirdPersonMap/A/9F/CA9BQ44POOBK0KK25PN8JJ.uasset",
				"D:/AguilochoSergioUE5Proyectos/PC/ProyectoEjerciciosT1/Content/_SERGIO/BP/PROPS/BP_RampaMecanica.uasset",
				"D:/AguilochoSergioUE5Proyectos/PC/ProyectoEjerciciosT1/Content/__ExternalActors__/ThirdPerson/Maps/ThirdPersonMap/C/FG/OND3B7GA666RLPARB3SU5N.uasset",
				"D:/AguilochoSergioUE5Proyectos/PC/ProyectoEjerciciosT1/Content/_SERGIO/BP/PROPS/BP_CabinaTransporte.uasset",
				"D:/AguilochoSergioUE5Proyectos/PC/ProyectoEjerciciosT1/Content/__ExternalActors__/ThirdPerson/Maps/ThirdPersonMap/2/RL/39SJX1OC80PEY7GRX5F6U8.uasset",
				"D:/AguilochoSergioUE5Proyectos/PC/ProyectoEjerciciosT1/Content/ThirdPerson/Blueprints/BP_ThirdPersonCharacter.uasset",
				"D:/AguilochoSergioUE5Proyectos/PC/ProyectoEjerciciosT1/Content/_SERGIO/BP/PROPS/Accionar.uasset",
				"D:/AguilochoSergioUE5Proyectos/PC/ProyectoEjerciciosT1/Content/_SERGIO/MATERIALS/Rojo.uasset",
				"D:/AguilochoSergioUE5Proyectos/PC/ProyectoEjerciciosT1/Content/__ExternalActors__/ThirdPerson/Maps/ThirdPersonMap/D/0G/JNKFA4X9LRMSF343ESPF6Q.uasset",
				"D:/AguilochoSergioUE5Proyectos/PC/ProyectoEjerciciosT1/Content/__ExternalActors__/ThirdPerson/Maps/ThirdPersonMap/A/IL/RJMQACJJAN27NCN5TI2MV9.uasset",
				"D:/AguilochoSergioUE5Proyectos/PC/ProyectoEjerciciosT1/Content/__ExternalActors__/ThirdPerson/Maps/ThirdPersonMap/4/MG/UU18YXJL7FNJ68D95VMY4H.uasset",
				"D:/AguilochoSergioUE5Proyectos/PC/ProyectoEjerciciosT1/Content/_SERGIO/BP/PROPS/BP_Puerta.uasset",
				"D:/AguilochoSergioUE5Proyectos/PC/ProyectoEjerciciosT1/Content/__ExternalActors__/ThirdPerson/Maps/ThirdPersonMap/8/1U/RXJ1AHRP3MLRGLGM9HUU2B.uasset",
				"D:/AguilochoSergioUE5Proyectos/PC/ProyectoEjerciciosT1/Content/_SERGIO/BP/PROPS/BP_BotonPuerta.uasset",
				"D:/AguilochoSergioUE5Proyectos/PC/ProyectoEjerciciosT1/Content/__ExternalActors__/ThirdPerson/Maps/ThirdPersonMap/9/LN/TUZHCY5XD6EL7H86A0MA1R.uasset",
				"D:/AguilochoSergioUE5Proyectos/PC/ProyectoEjerciciosT1/Content/_SERGIO/BP/PROPS/BP_BotonMano.uasset",
				"D:/AguilochoSergioUE5Proyectos/PC/ProyectoEjerciciosT1/Content/_SERGIO/BP/PROPS/BP_Dispensador.uasset",
				"D:/AguilochoSergioUE5Proyectos/PC/ProyectoEjerciciosT1/Content/__ExternalActors__/ThirdPerson/Maps/ThirdPersonMap/2/VY/TXSTW4WJTW76TX6YXRB5QZ.uasset",
				"D:/AguilochoSergioUE5Proyectos/PC/ProyectoEjerciciosT1/Content/_SERGIO/BP/PROPS/BP_Boton_Puerta.uasset",
				"D:/AguilochoSergioUE5Proyectos/PC/ProyectoEjerciciosT1/Content/__ExternalActors__/ThirdPerson/Maps/ThirdPersonMap/B/T8/CH3SD0DIGNAMRCQSYRTHPZ.uasset",
				"D:/AguilochoSergioUE5Proyectos/PC/ProyectoEjerciciosT1/Content/_SERGIO/MATERIALS/Azul.uasset",
				"D:/AguilochoSergioUE5Proyectos/PC/ProyectoEjerciciosT1/Content/_SERGIO/BP/PROPS/SM_ChamferCube_Blueprint.uasset",
				"D:/AguilochoSergioUE5Proyectos/PC/ProyectoEjerciciosT1/Content/_SERGIO/BP/PROPS/Cubo.uasset"
			]
		}
	]
}